\relax 
\providecommand\hyper@newdestlabel[2]{}
\providecommand*{\memsetcounter}[2]{}
\providecommand\HyperFirstAtBeginDocument{\AtBeginDocument}
\HyperFirstAtBeginDocument{\ifx\hyper@anchor\@undefined
\global\let\oldcontentsline\contentsline
\gdef\contentsline#1#2#3#4{\oldcontentsline{#1}{#2}{#3}}
\global\let\oldnewlabel\newlabel
\gdef\newlabel#1#2{\newlabelxx{#1}#2}
\gdef\newlabelxx#1#2#3#4#5#6{\oldnewlabel{#1}{{#2}{#3}}}
\AtEndDocument{\ifx\hyper@anchor\@undefined
\let\contentsline\oldcontentsline
\let\newlabel\oldnewlabel
\fi}
\fi}
\global\let\hyper@last\relax 
\gdef\HyperFirstAtBeginDocument#1{#1}
\providecommand*\HyPL@Entry[1]{}
\HyPL@Entry{0<</S/D>>}
\@input{abstract.aux}
\HyPL@Entry{1<</S/r>>}
\@input{dedicat.aux}
\@input{acky.aux}
\HyPL@Entry{5<</S/D>>}
\@writefile{lof}{\addvspace {10pt}}
\@writefile{lot}{\addvspace {10pt}}
\@writefile{toc}{\contentsline {chapter}{\chapternumberline {1}Introduction}{1}{chapter.1}}
\newlabel{lem:hands}{{1.1}{1}{Handshaking Lemma}{thm.1.1}{}}
\@writefile{lof}{\contentsline {figure}{\numberline {1.1}{\ignorespaces Edge contraction}}{2}{figure.1.1}}
\newlabel{contract}{{1.1}{2}{Edge contraction}{figure.1.1}{}}
\newlabel{kirch}{{1.1}{2}{}{equation.1.0.1}{}}
\@writefile{lof}{\contentsline {figure}{\numberline {1.2}{\ignorespaces Two examples of $H$-flows}}{3}{figure.1.2}}
\newlabel{exflow}{{1.2}{3}{Two examples of $H$-flows}{figure.1.2}{}}
\newlabel{orient}{{1.2}{4}{}{thm.1.2}{}}
\@writefile{lof}{\addvspace {10pt}}
\@writefile{lot}{\addvspace {10pt}}
\@writefile{toc}{\contentsline {chapter}{\chapternumberline {2}Preliminaries}{5}{chapter.2}}
\newlabel{cubcon}{{2.1}{5}{}{thm.2.1}{}}
\newlabel{flowcor}{{2.2}{6}{}{thm.2.2}{}}
\citation{T5}
\citation{younger}
\newlabel{subcount}{{2.3}{7}{}{thm.2.3}{}}
\newlabel{bridgenoflow}{{2.4}{7}{}{thm.2.4}{}}
\newlabel{anyh}{{2.5}{7}{}{thm.2.5}{}}
\newlabel{kzk}{{2.6}{8}{}{thm.2.6}{}}
\newlabel{modkor}{{2.7}{8}{}{thm.2.7}{}}
\newlabel{posneg}{{2.8}{9}{}{thm.2.8}{}}
\@writefile{lof}{\addvspace {10pt}}
\@writefile{lot}{\addvspace {10pt}}
\@writefile{toc}{\contentsline {chapter}{\chapternumberline {3}Flow-Colouring Duality}{10}{chapter.3}}
\newlabel{duality}{{3}{10}{}{chapter.3}{}}
\@writefile{toc}{\contentsline {section}{\numberline {3.1}Planar Graphs}{10}{section.3.1}}
\newlabel{k4}{{3.1}{10}{Planar Graphs}{section.3.1}{}}
\@writefile{lof}{\contentsline {figure}{\numberline {3.1}{\ignorespaces Two embeddings of $K_4$ in the plane}}{10}{figure.3.1}}
\citation{Kura}
\citation{5col}
\citation{4col}
\@writefile{lof}{\contentsline {figure}{\numberline {3.2}{\ignorespaces Subdividing an edge}}{12}{figure.3.2}}
\newlabel{subdiv}{{3.2}{12}{Subdividing an edge}{figure.3.2}{}}
\@writefile{lof}{\contentsline {figure}{\numberline {3.3}{\ignorespaces The Petersen graph contains a subdivision of $K_{3,3}$}}{12}{figure.3.3}}
\newlabel{pete}{{3.3}{12}{The Petersen graph contains a subdivision of $K_{3,3}$}{figure.3.3}{}}
\@writefile{toc}{\contentsline {section}{\numberline {3.2}The Duality Theorem}{13}{section.3.2}}
\newlabel{dual}{{3.4}{13}{Flow-Colouring Duality}{thm.3.4}{}}
\@writefile{lof}{\contentsline {figure}{\numberline {3.4}{\ignorespaces The colours given to the $d_v$ faces around $v$}}{13}{figure.3.4}}
\newlabel{dualv}{{3.4}{13}{The colours given to the $d_v$ faces around $v$}{figure.3.4}{}}
\citation{kil}
\citation{jgr8}
\citation{sey}
\citation{Flei}
\@writefile{lof}{\addvspace {10pt}}
\@writefile{lot}{\addvspace {10pt}}
\@writefile{toc}{\contentsline {chapter}{\chapternumberline {4}The 5-Flow Conjecture}{15}{chapter.4}}
\newlabel{ch5flow}{{4}{15}{}{chapter.4}{}}
\newlabel{eightflow}{{4.1}{15}{Jaeger/Kilpatrick}{thm.4.1}{}}
\newlabel{sixflow}{{4.2}{15}{Seymour}{thm.4.2}{}}
\@writefile{toc}{\contentsline {section}{\numberline {4.1}An Initial Reduction}{16}{section.4.1}}
\@writefile{lof}{\contentsline {figure}{\numberline {4.1}{\ignorespaces Vertex splitting}}{16}{figure.4.1}}
\newlabel{flei}{{4.5}{16}{Fleischner}{thm.4.5}{}}
\@writefile{lof}{\contentsline {figure}{\numberline {4.2}{\ignorespaces Fleischner's Lemma - When $v$ is a cut-vertex}}{17}{figure.4.2}}
\@writefile{lof}{\contentsline {figure}{\numberline {4.3}{\ignorespaces Fleischner's Lemma - When $v$ is not a cut-vertex}}{18}{figure.4.3}}
\newlabel{sey2.1}{{4.6}{18}{}{thm.4.6}{}}
\@writefile{toc}{\contentsline {section}{\numberline {4.2}$8$-Flow Theorem}{20}{section.4.2}}
\newlabel{props:evensub}{{4.7}{20}{}{thm.4.7}{}}
\citation{T4}
\citation{NW}
\newlabel{cor:trees}{{4.9}{21}{}{thm.4.9}{}}
\newlabel{algo}{{4.10}{22}{}{thm.4.10}{}}
\@writefile{toc}{\contentsline {section}{\numberline {4.3}Seymour's $6$-Flow Theorem}{23}{section.4.3}}
\@writefile{lof}{\addvspace {10pt}}
\@writefile{lot}{\addvspace {10pt}}
\@writefile{toc}{\contentsline {chapter}{\chapternumberline {5}The 4-Flow Conjecture}{24}{chapter.5}}
\newlabel{ch4flow}{{5}{24}{}{chapter.5}{}}
\@writefile{toc}{\contentsline {section}{\numberline {5.1}The Petersen Graph}{24}{section.5.1}}
\@writefile{toc}{\contentsline {section}{\numberline {5.2}Snarks}{25}{section.5.2}}
\citation{jgrnzf}
\citation{thom}
\citation{lova}
\@writefile{lof}{\addvspace {10pt}}
\@writefile{lot}{\addvspace {10pt}}
\@writefile{toc}{\contentsline {chapter}{\chapternumberline {6}The 3-Flow Conjecture}{26}{chapter.6}}
\newlabel{ch3flow}{{6}{26}{}{chapter.6}{}}
\@writefile{toc}{\contentsline {section}{\numberline {6.1}The Weak $3$-Flow Conjecture for $k=6$}{26}{section.6.1}}
\newlabel{thom1}{{6.2}{28}{}{thm.6.2}{}}
\newlabel{c1}{{6.2.1}{28}{}{clm.6.2.1}{}}
\newlabel{c2}{{6.2.2}{29}{}{clm.6.2.2}{}}
\newlabel{c3}{{6.2.3}{30}{}{clm.6.2.3}{}}
\newlabel{c4}{{6.2.4}{31}{}{clm.6.2.4}{}}
\newlabel{c5}{{6.2.5}{33}{}{clm.6.2.5}{}}
\newlabel{c6}{{6.2.6}{33}{}{clm.6.2.6}{}}
\@writefile{lof}{\contentsline {figure}{\numberline {6.1}{\ignorespaces Forming $G'$ from $G$}}{33}{figure.6.1}}
\newlabel{gprime}{{6.1}{33}{Forming $G'$ from $G$}{figure.6.1}{}}
\@writefile{lof}{\contentsline {figure}{\numberline {6.2}{\ignorespaces Comparing $d_G$ and $d_{G'}$}}{35}{figure.6.2}}
\newlabel{degtab}{{6.2}{35}{Comparing $d_G$ and $d_{G'}$}{figure.6.2}{}}
\newlabel{c3plus}{{\ref  *{c3}$\boldsymbol  {^*}$}{35}{\ref  *{c3}$\boldsymbol  {^*}$}{c3plus}{}}
\newlabel{m}{{{$\star $}}{36}{The Weak $3$-Flow Conjecture for $k=6$}{AMS.6}{}}
\@writefile{lof}{\contentsline {figure}{\numberline {6.3}{\ignorespaces Comparing $d_G$ and $d_{G'}$}}{37}{figure.6.3}}
\newlabel{degtab2}{{6.3}{37}{Comparing $d_G$ and $d_{G'}$}{figure.6.3}{}}
\bibstyle{plain}
\bibdata{biblio}
\memsetcounter{lastsheet}{43}
\memsetcounter{lastpage}{38}
