\BOOKMARK [0][-]{chapter.1}{Introduction}{}% 1
\BOOKMARK [0][-]{chapter.2}{Preliminaries}{}% 2
\BOOKMARK [0][-]{chapter.3}{Flow-Colouring\040Duality}{}% 3
\BOOKMARK [1][-]{section.3.1}{Planar\040Graphs}{chapter.3}% 4
\BOOKMARK [1][-]{section.3.2}{The\040Duality\040Theorem}{chapter.3}% 5
\BOOKMARK [0][-]{chapter.4}{The\0405-Flow\040Conjecture}{}% 6
\BOOKMARK [1][-]{section.4.1}{An\040Initial\040Reduction}{chapter.4}% 7
\BOOKMARK [1][-]{section.4.2}{8-Flow\040Theorem}{chapter.4}% 8
\BOOKMARK [1][-]{section.4.3}{Seymour's\0406-Flow\040Theorem}{chapter.4}% 9
\BOOKMARK [0][-]{chapter.5}{The\0404-Flow\040Conjecture}{}% 10
\BOOKMARK [1][-]{section.5.1}{The\040Petersen\040Graph}{chapter.5}% 11
\BOOKMARK [1][-]{section.5.2}{Snarks}{chapter.5}% 12
\BOOKMARK [0][-]{chapter.6}{The\0403-Flow\040Conjecture}{}% 13
\BOOKMARK [1][-]{section.6.1}{The\040Weak\0403-Flow\040Conjecture\040for\040k=6}{chapter.6}% 14
